module gitlab.com/yawning/obfs4.git

require (
	git.torproject.org/pluggable-transports/goptlib.git v1.0.0
	github.com/agl/ed25519 v0.0.0-20170116200512-5312a6153412
	github.com/dchest/siphash v1.2.1
	gitlab.com/yawning/utls.git v0.0.11-1
	golang.org/x/crypto v0.0.0-20190510104115-cbcb75029529
	golang.org/x/exp v0.0.0-20191002040644-a1355ae1e2c3
	golang.org/x/net v0.0.0-20190620200207-3b0461eec859
	gonum.org/v1/gonum v0.0.0-20191009222026-5d5638e6749a
)

go 1.13
